{
        "scanner":{
            "path":"/tmp/data",
            "extension":".csv.gz",
            "subdirs":"true",
            "logpath": "/tmp/notifier.log",
            "loglevel": "DEBUG"
        },

        "loader":{
            "host":"127.0.0.1",
            "notification-uri":"api/loaders/csvfilenotifications",
            "port":4010
        },

        "statements": {
            "insertNotification": "insert into file_process (event_data, event_date) values(%s, current_timestamp) returning id"
        },

        "messages": {
            "insertNotification": "insert into file_process (event_data, event_date) values(%s, current_timestamp) returning id"
        }

}
